Teams run on third and six about a quarter of the time – Marwa’s Sports Data Blog
…
Count the number of play types for those plays using group_by and summarize.

Code

third_and_six |>
  group_by(play_type) |>
  summarise(
    total = n()
  ) |>
  arrange(desc(total))

# A tibble: 22 × 2
   play_type                  total
   <chr>                      <int>
 1 Pass Reception              4676
 2 Pass Incompletion           3866
 3 Rush                        3173
 4 Penalty                     1068
 5 Timeout                      929
 6 Sack                         800
 7 Passing Touchdown            496
 8 Interception Return          257
 9 Rushing Touchdown            135
10 Fumble Recovery (Opponent)   101
# ℹ 12 more rows
…
Which team has done it the most? In total, Navy has run the most on these plays (on totals alone, not averages)

Code

third_and_six |>
  filter(rush>0) |>
  group_by(pos_team) |>
  summarise(
    total = n()
  ) |>
  arrange(desc(total))

# A tibble: 280 × 2
   pos_team         total
   <chr>            <int>
 1 Navy                60
 2 Army                51
 3 Air Force           42
 4 Georgia Southern    35
 5 New Mexico          32
 6 Ole Miss            31
 7 Kent State          30
 8 Baylor              29
 9 Georgia Tech        29
10 Louisiana           29
# ℹ 270 more rows
…
