Maryland volleyball bottom of the league in aces – Marwa’s Sports Data Blog
…
Warning: Returning more (or less) than 1 row per `summarise()` group was deprecated in
dplyr 1.1.0.
ℹ Please use `reframe()` instead.
ℹ When switching from `summarise()` to `reframe()`, remember that `reframe()`
  always returns an ungrouped data frame and adjust accordingly.

`summarise()` has grouped output by 'last_name'. You can override using the
`.groups` argument.

# A tibble: 3,223 × 2
# Groups:   last_name [2,501]
   last_name  acespermatch
   <chr>             <dbl>
 1 Abel             0     
 2 Abner            0.32  
 3 Abraham          0.818 
 4 Abramovich       0.913 
 5 Abutbul          0     
 6 Achtzehn         0.0938
 7 Ackerman         0.435 
 8 Adam             0     
 9 Adams            0.233 
10 Adams            1.07  
# ℹ 3,213 more rows
…
